{
  "swagger": "2.0",
  "info": {
    "title": "Documentation API Final Project",
    "description": "Documentation API Final Project",
    "version": "1.0.0"
  },
  "host": "localhost:3000",
  "basePath": "/",
  "schemes": [
    "http"
  ],
  "paths": {
    "/api/v1/profile/{id}": {
      "get": {
        "description": "",
        "parameters": [
          {
            "name": "user_id",
            "in": "path",
            "required": true,
            "type": "string"
          }
        ],
        "responses": {
          "200": {
            "description": "Get List Data Profile",
            "schema": {
              "type": "array",
              "items":{
                "type": "object",
                "properties":{
                  "id":{
                    "example":"1"
                  },
                  "user_id":{
                    "example":"1"
                  },
                  "nama":{
                    "example":"Binar"
                  },
                  "kota":{
                    "example":"Jakarta"
                  },
                  "alamat":{
                    "example":"Jakarta"
                  },
                  "no_handphone":{
                    "example":"021234258"
                  },
                  "image_url":{
                    "example":"https:claudinary/image_url-1655728032816-batako plastik.jpg"
                  },
                  "createdAt": {
                    "example": "2022-04-21T15:05:35.841Z"
                  },
                  "updatedAt":{
                    "example": "2022-04-21T15:05:35.841Z"
                  }
                }
              }
            }
          },
          "401":{
            "description": "error authorization",
            "schema": {
              "type":"object",
              "properties":{
                "message":{
                  "example": "Unauthorized request"
                }
              }
            }
          },
          "404":{
            "description": "User not found",
            "schema": {
              "type":"object",
              "properties":{
                "message":{
                  "example": "User not found"
                }
              }
            }
          },
          "500":{
            "description": "server error",
            "schema": {
              "type":"object",
              "properties":{
                "message":{
                  "example": "Internal Server Error"
                }
              }
            }
          }
        }
      },
      "put": {
        "description": "",
        "parameters": [
          {
            "name": "user_id",
            "in": "path",
            "required": true,
            "type": "string"
          }
        ],
        "responses": {
          "200": {
            "description": "Update data profile",
            "schema":{ 
              "type":"object",
              "properties":{
                "message":{
                  "example": "Successfully update user"
                }
              }
            }
          },
          "401":{
            "description": "error authorization",
            "schema": {
              "type":"object",
              "properties":{
                "message":{
                  "example": "Unauthorized request"
                }
              }
            }
          },
          "404":{
            "description": "User not found",
            "schema": {
              "type":"object",
              "properties":{
                "message":{
                  "example": "User not found"
                }
              }
            }
          },
          "500":{
            "description": "server error",
            "schema": {
              "type":"object",
              "properties":{
                "message":{
                  "example": "Internal Server Error"
                }
              }
            }
          }
        }
      }
    },
    "/api-docs": {
      "get": {
        "description": "",
        "parameters": [],
        "responses": {}
      }
    }
  }
}